Using the PolicyPortfolios package
…
Input Data

Structure and characteristics

The input data required for the package to work with is a tidy dataset (Wickham 2014), where every observation is a row and every variable is a column. This makes the data easy to manipulate, model and visualize.

Two fake datasets to show the possibilities of the package have been created, and they can be accessed using the data(P.education) and data(P.energy) calls.

There are two portfolios, one in the energy sector (P.energy) and one in the education sector (P.education). The energy one looks like follows:

library(PolicyPortfolios)
data(P.energy)
P.energy

## # A tibble: 12,375 × 6
##    Country  Sector  Year Instrument    Target    covered
##    <fct>    <fct>  <int> <fct>         <fct>       <int>
##  1 Syldavia Energy  2020 Instrument 11 Target 16       0
##  2 Syldavia Energy  2021 Instrument 11 Target 16       0
##  3 Syldavia Energy  2022 Instrument 11 Target 16       0
##  4 Syldavia Energy  2023 Instrument 11 Target 16       0
##  5 Syldavia Energy  2024 Instrument 11 Target 16       0
##  6 Syldavia Energy  2025 Instrument 11 Target 16       0
##  7 Syldavia Energy  2026 Instrument 11 Target 16       0
##  8 Syldavia Energy  2027 Instrument 11 Target 16       0
##  9 Syldavia Energy  2028 Instrument 11 Target 16       0
## 10 Syldavia Energy  2029 Instrument 11 Target 16       0
## # … with 12,365 more rows
…
Syldavia
Energy
2020
Burden.steep
0.0173333
Burden (steep learning)

The argument id allows to explicitly ask for concrete portfolios, defined by the elements of the list that is passed.

pp_measures(P.energy, id = list(Country = "Borduria", Year = 2010:2021))

## # A tibble: 38 × 6
##    Country  Sector  Year Measure         value Measure.label                    
##    <fct>    <fct>  <int> <fct>           <dbl> <fct>                            
##  1 Borduria Energy  2020 Space         375     Portfolio space                  
##  2 Borduria Energy  2020 Size            0.016 Portfolio size                   
##  3 Borduria Energy  2020 n.Instruments   5     Number of instruments covered    
##  4 Borduria Energy  2020 p.Instruments   0.333 Proportion of instruments covered
##  5 Borduria Energy  2020 n.Targets       5     Number of targets covered        
##  6 Borduria Energy  2020 p.Targets       0.2   Proportion of targets covered    
##  7 Borduria Energy  2020 Unique          5     Number of unique instrument conf…
##  8 Borduria Energy  2020 C.eq            0.5   Equality of Instrument configura…
##  9 Borduria Energy  2020 Div.aid         0.925 Diversity (Average Instrument Di…
## 10 Borduria Energy  2020 Div.gs          0.778 Diversity (Gini-Simpson)         
## # … with 28 more rows
…
